aquila_mp/multicore_aquila/.Xil/Vivado-425378-henry7090-ROG-Zephyrus-G16/hw_ila_data_1/zip_work/waveform.vcd
$date
        2024-Sep-27 00:55:23
$end
$version
        Vivado v2024.1 (64-bit)
$end
$timescale
        1ps
$end
$scope module dut $end
$var reg 32 " \genblk1[0].Aquila_SoC/I_Cache/p_data_o [31:0] $end
$var reg 128 B \genblk1[0].Aquila_SoC/I_Cache/m_data_i [127:0] $end
$var reg 32 d" \genblk1[0].Aquila_SoC/I_Cache/p_addr_i [31:0] $end
$var reg 1 &# _TRIGGER $end
$var reg 1 '# _WINDOW $end
$var reg 1 (# _GAP $end
$upscope $end
$enddefinitions $end
#0
$dumpvars
b0 "
b0 B
b11000001100 d"
0&#
1'#
0(#
$end
#4
b11000000100 d"
#5
b11000001000 d"
#6
b11000001100 d"
#12
b11000000100 d"
#13
b11000001000 d"
#14
b11000001100 d"
#20
b11000000100 d"
#21
b11000001000 d"
#22
b11000001100 d"
#28
b11000000100 d"
#29
b11000001000 d"
#30
b11000010000 d"
#31
b11000010100 d"
#32
b10110111000 d"
#33
b10110111100 d"
#38
b10111000000 d"
#39
b10101111100 d"
#41
b10111111000 d"
#42
b10111000100 d"
#43
b10111001000 d"
#44
b10111001100 d"
#45
b10111010000 d"
#47
b10111010100 d"
#49
b10111011000 d"
#51
b10111011100 d"
#53
b10111100000 d"
#55
b10111100100 d"
#57
b10111101000 d"
#59
b10111101100 d"
#61
b10111110000 d"
#63
b10111110100 d"
#65
b10111111000 d"
#66
b10111111100 d"
#67
b100010110000 d"
#68
b100010110100 d"
#69
b100010111000 d"
#70
b1011000 d"
#71
b1011100 d"
#72
b1100000 d"
#73
b1100100 d"
#76
b1101000 d"
#87
b1101100 d"
#88
b1110000 d"
#89
b100010110100 d"
#90
b100010111000 d"
#91
b100010111100 d"
#92
b100011000000 d"
#93
b100010111000 d"
#94
b100010111100 d"
#95
b100011000000 d"
#96
b100011000100 d"
#99
b100011001000 d"
#100
b10000000000000000010001001100100 d"
1&#
#646
b100101010010001011100111110000011001011110110010001110100110101010100110100011001001010100001111001110110010011101001111110101 B
#647
b1100101111011001000111010011010 "
b0 B
b10000000000000000010001001101000 d"
#648
b0 "
#649
b10101001101000110010010101000011 "
b10000000000000000010001001101100 d"
#650
b11001110110010011101001111110101 "
b10000000000000000010001001110000 d"
#651
b0 "
#686
b10111111111011001000111011101010111011110011111000000100111011000110010001100011110101001011111011010100101000111111110010001101 B
#687
b10111111111011001000111011101010 "
b0 B
b10000000000000000010001001110100 d"
#688
b0 "
#689
b11101111001111100000010011101100 "
b10000000000000000010001001111000 d"
#690
b1100100011000111101010010111110 "
b10000000000000000010001001111100 d"
#691
b11010100101000111111110010001101 "
b1111111111111100011000101100110 d"
#692
b0 "
#727
b100001001100001010001111110001000010011101101000100011011011001101101110000000001001110100100100001000100000000100010111000001 B
#728
b1001110110100010001101101100 "
b0 B
b1111111111111100011000101101010 d"
#729
b0 "
#730
b11011011100000000010011101001001 "
b1111111111111100011000101101110 d"
#731
b1000100000000100010111000001 "
b10000000000010000101101000000010 d"
#732
b0 "
#767
b11011010000001101100101011010011111001111111110001011000111101011001010111001011100100111010111010000110111010011100110110101011 B
#768
b11011010000001101100101011010011 "
b0 B
b10000000000010000101101000000110 d"
#769
b0 "
#770
b11100111111111000101100011110101 "
b10000000000010000101101000001010 d"
#771
b10010101110010111001001110101110 "
b10000000000010000101101000001110 d"
#772
b10000110111010011100110110101011 "
b10000000000010000101101000010010 d"
#773
b0 "
#808
b10001100110001111100100011110101011110100011111111010100110101110010111111101110001001111111111100111010100000111110001011010011 B
#809
b10001100110001111100100011110101 "
b0 B
b10000000000010000101101000010110 d"
#810
b0 "
#811
b1111010001111111101010011010111 "
