aquila_mp/multicore_aquila/.Xil/Vivado-11368-henry7090-ROG-Zephyrus-G16/hw_ila_data_1/zip_work/waveform.vcd
$date
        2024-Nov-02 22:59:42
$end
$version
        Vivado v2024.1 (64-bit)
$end
$timescale
        1ps
$end
$scope module dut $end
$var reg 32 " \genblk1[0].Aquila_SoC/RISCV_CORE/fet_pc2dec [31:0] $end
$var reg 32 B \genblk1[0].Aquila_SoC/RISCV_CORE/fet_instr2dec [31:0] $end
$var reg 32 b \genblk1[1].Aquila_SoC/RISCV_CORE/fet_instr2dec [31:0] $end
$var reg 32 $" \genblk1[1].Aquila_SoC/RISCV_CORE/fet_pc2dec [31:0] $end
$var reg 1 D" _TRIGGER $end
$var reg 1 E" _WINDOW $end
$var reg 1 F" _GAP $end
$upscope $end
$enddefinitions $end
#0
$dumpvars
b100011101000 "
b11111110110001111001101011100011 B
b100001111111011110010011 b
b11001111011 $"
0D"
1E"
0F"
$end
#1
b11111110000001111001110011100011 b
b11001111111 $"
#2
b100011011100 "
b1101010011110000011 B
#3
b1110010011110000011 b
b11001110111 $"
#4
b100011100000 "
b11111110111001111001111011100011 B
#5
b100001111111011110010011 b
b11001111011 $"
#8
b100011100100 "
b1011010011110000011 B
#9
b11111110000001111001110011100011 b
b11001111111 $"
#10
b100011101000 "
b11111110110001111001101011100011 B
#11
b1110010011110000011 b
b11001110111 $"
#13
b100001111111011110010011 b
b11001111011 $"
#14
b100011011100 "
b1101010011110000011 B
#16
b100011100000 "
b11111110111001111001111011100011 B
#17
b11111110000001111001110011100011 b
b11001111111 $"
#19
b1110010011110000011 b
b11001110111 $"
#20
b100011100100 "
b1011010011110000011 B
#21
b100001111111011110010011 b
b11001111011 $"
#22
b100011101000 "
b11111110110001111001101011100011 B
#25
b11111110000001111001110011100011 b
b11001111111 $"
#26
b100011011100 "
b1101010011110000011 B
#27
b1110010011110000011 b
b11001110111 $"
#28
b100011100000 "
b11111110111001111001111011100011 B
#29
b100001111111011110010011 b
b11001111011 $"
#32
b100011100100 "
b1011010011110000011 B
#33
b11111110000001111001110011100011 b
b11001111111 $"
#34
b100011101000 "
b11111110110001111001101011100011 B
#35
b1110010011110000011 b
b11001110111 $"
#37
b100001111111011110010011 b
b11001111011 $"
#38
b100011011100 "
b1101010011110000011 B
#40
b100011100000 "
b11111110111001111001111011100011 B
#41
b11111110000001111001110011100011 b
b11001111111 $"
#43
b1110010011110000011 b
b11001110111 $"
#44
b100011100100 "
b1011010011110000011 B
#45
b100001111111011110010011 b
b11001111011 $"
#46
b100011101000 "
b11111110110001111001101011100011 B
#49
b11111110000001111001110011100011 b
b11001111111 $"
#50
b100011011100 "
b1101010011110000011 B
#51
b1110010011110000011 b
b11001110111 $"
#52
b100011100000 "
b11111110111001111001111011100011 B
#53
b100001111111011110010011 b
b11001111011 $"
#56
b100011100100 "
b1011010011110000011 B
#57
b11111110000001111001110011100011 b
b11001111111 $"
#58
b100011101000 "
b11111110110001111001101011100011 B
#59
b1110010011110000011 b
b11001110111 $"
#61
b100001111111011110010011 b
b11001111011 $"
#62
b100011011100 "
b1101010011110000011 B
#64
b100011100000 "
b11111110111001111001111011100011 B
#65
b11111110000001111001110011100011 b
b11001111111 $"
#67
b1110010011110000011 b
b11001110111 $"
#68
b100011100100 "
b1011010011110000011 B
#69
b100001111111011110010011 b
b11001111011 $"
#70
b100011101000 "
b11111110110001111001101011100011 B
#73
b11111110000001111001110011100011 b
b11001111111 $"
#74
b100011011100 "
b1101010011110000011 B
#75
b1110010011110000011 b
b11001110111 $"
#76
b100011100000 "
b11111110111001111001111011100011 B
#77
b100001111111011110010011 b
b11001111011 $"
#80
b100011100100 "
b1011010011110000011 B
#81
b11111110000001111001110011100011 b
b11001111111 $"
#82
b100011101000 "
b11111110110001111001101011100011 B
#83
b1110010011110000011 b
b11001110111 $"
#85
b100001111111011110010011 b
b11001111011 $"
#86
b100011011100 "
b1101010011110000011 B
#88
b100011100000 "
b11111110111001111001111011100011 B
#89
b11111110000001111001110011100011 b
b11001111111 $"
#91
b1110010011110000011 b
b11001110111 $"
#92
b100011100100 "
b1011010011110000011 B
#93
b100001111111011110010011 b
b11001111011 $"
#94
b100011101000 "
b11111110110001111001101011100011 B
#97
b11111110000001111001110011100011 b
b11001111111 $"
#98
b100011011100 "
b1101010011110000011 B
#99
b1110010011110000011 b
b11001110111 $"
#100
b100011100000 "
b11111110111001111001111011100011 B
1D"
#101
b100001111111011110010011 b
b11001111011 $"
#104
b100011100100 "
b1011010011110000011 B
#105
b11111110000001111001110011100011 b
b11001111111 $"
#106
b100011101000 "
b11111110110001111001101011100011 B
#107
b1110010011110000011 b
b11001110111 $"
#109
b100001111111011110010011 b
b11001111011 $"
#110
b100011011100 "
b1101010011110000011 B
#112
b100011100000 "
b11111110111001111001111011100011 B
#113
b11111110000001111001110011100011 b
b11001111111 $"
#115
b1110010011110000011 b
b11001110111 $"
#116
b100011100100 "
b1011010011110000011 B
#117
b100001111111011110010011 b
b11001111011 $"
#118
b100011101000 "
b11111110110001111001101011100011 B
#121
b11111110000001111001110011100011 b
b11001111111 $"
#122
b100011011100 "
b1101010011110000011 B
#123
b1110010011110000011 b
b11001110111 $"
#124
b100011100000 "
b11111110111001111001111011100011 B
#125
b100001111111011110010011 b
b11001111011 $"
#128
b100011100100 "
b1011010011110000011 B
#129
b11111110000001111001110011100011 b
b11001111111 $"
#130
b100011101000 "
b11111110110001111001101011100011 B
#131
b1110010011110000011 b
b11001110111 $"
#133
b100001111111011110010011 b
b11001111011 $"
#134
b100011011100 "
b1101010011110000011 B
#136
b100011100000 "
b11111110111001111001111011100011 B
#137
b11111110000001111001110011100011 b
b11001111111 $"
#139
b1110010011110000011 b
b11001110111 $"
#140
b100011100100 "
b1011010011110000011 B
#141
b100001111111011110010011 b
b11001111011 $"
#142
b100011101000 "
b11111110110001111001101011100011 B
#145
b11111110000001111001110011100011 b
b11001111111 $"
#146
b100011011100 "
b1101010011110000011 B
#147
b1110010011110000011 b
b11001110111 $"
#148
b100011100000 "
b11111110111001111001111011100011 B
#149
b100001111111011110010011 b
b11001111011 $"
#152
b100011100100 "
b1011010011110000011 B
#153
b11111110000001111001110011100011 b
b11001111111 $"
#154
b100011101000 "
b11111110110001111001101011100011 B
#155
b1110010011110000011 b
b11001110111 $"
#157
b100001111111011110010011 b
b11001111011 $"
#158
b100011011100 "
b1101010011110000011 B
#160
b100011100000 "
b11111110111001111001111011100011 B
#161
b11111110000001111001110011100011 b
b11001111111 $"
#163
b1110010011110000011 b
b11001110111 $"
#164
b100011100100 "
b1011010011110000011 B
#165
b100001111111011110010011 b
b11001111011 $"
#166
b100011101000 "
b11111110110001111001101011100011 B
#169
b11111110000001111001110011100011 b
b11001111111 $"
#170
b100011011100 "
b1101010011110000011 B
#171
b1110010011110000011 b
b11001110111 $"
#172
b100011100000 "
b11111110111001111001111011100011 B
#173
b100001111111011110010011 b
b11001111011 $"
#176
b100011100100 "
b1011010011110000011 B
#177
b11111110000001111001110011100011 b
b11001111111 $"
#178
b100011101000 "
b11111110110001111001101011100011 B
#179
b1110010011110000011 b
b11001110111 $"
#181
b100001111111011110010011 b
b11001111011 $"
#182
b100011011100 "
b1101010011110000011 B
#184
b100011100000 "
b11111110111001111001111011100011 B
#185
b11111110000001111001110011100011 b
b11001111111 $"
#187
b1110010011110000011 b
b11001110111 $"
#188
b100011100100 "
b1011010011110000011 B
#189
b100001111111011110010011 b
b11001111011 $"
#190
b100011101000 "
b11111110110001111001101011100011 B
#193
b11111110000001111001110011100011 b
b11001111111 $"
#194
b100011011100 "
b1101010011110000011 B
#195
b1110010011110000011 b
b11001110111 $"
#196
b100011100000 "
b11111110111001111001111011100011 B
#197
b100001111111011110010011 b
b11001111011 $"
#200
b100011100100 "
b1011010011110000011 B
#201
b11111110000001111001110011100011 b
b11001111111 $"
#202
b100011101000 "
b11111110110001111001101011100011 B
#203
b1110010011110000011 b
b11001110111 $"
#205
b100001111111011110010011 b
b11001111011 $"
#206
b100011011100 "
b1101010011110000011 B
#208
b100011100000 "
b11111110111001111001111011100011 B
#209
b11111110000001111001110011100011 b
b11001111111 $"
#211
b1110010011110000011 b
b11001110111 $"
#212
b100011100100 "
b1011010011110000011 B
#213
b100001111111011110010011 b
b11001111011 $"
#214
b100011101000 "
b11111110110001111001101011100011 B
#217
b11111110000001111001110011100011 b
b11001111111 $"
#218
b100011011100 "
b1101010011110000011 B
#219
b1110010011110000011 b
b11001110111 $"
#220
b100011100000 "
b11111110111001111001111011100011 B
#221
b100001111111011110010011 b
b11001111011 $"
#224
b100011100100 "
b1011010011110000011 B
#225
b11111110000001111001110011100011 b
b11001111111 $"
#226
b100011101000 "
b11111110110001111001101011100011 B
#227
b1110010011110000011 b
b11001110111 $"
#229
b100001111111011110010011 b
b11001111011 $"
#230
b100011011100 "
b1101010011110000011 B
#232
b100011100000 "
b11111110111001111001111011100011 B
#233
b11111110000001111001110011100011 b
b11001111111 $"
#235
b1110010011110000011 b
b11001110111 $"
#236
b100011100100 "
b1011010011110000011 B
#237
b100001111111011110010011 b
b11001111011 $"
#238
b100011101000 "
b11111110110001111001101011100011 B
#241
b11111110000001111001110011100011 b
b11001111111 $"
#242
b100011011100 "
b1101010011110000011 B
#243
b1110010011110000011 b
b11001110111 $"
#244
b100011100000 "
b11111110111001111001111011100011 B
#245
b100001111111011110010011 b
b11001111011 $"
#248
b100011100100 "
b1011010011110000011 B
#249
b11111110000001111001110011100011 b
b11001111111 $"
#250
b100011101000 "
b11111110110001111001101011100011 B
#251
b1110010011110000011 b
b11001110111 $"
#253
b100001111111011110010011 b
b11001111011 $"
#254
b100011011100 "
b1101010011110000011 B
#256
b100011100000 "
b11111110111001111001111011100011 B
#257
b11111110000001111001110011100011 b
b11001111111 $"
#259
b1110010011110000011 b
b11001110111 $"
#260
b100011100100 "
b1011010011110000011 B
#261
b100001111111011110010011 b
b11001111011 $"
#262
b100011101000 "
b11111110110001111001101011100011 B
#265
b11111110000001111001110011100011 b
b11001111111 $"
#266
b100011011100 "
b1101010011110000011 B
#267
b1110010011110000011 b
b11001110111 $"
#268
b100011100000 "
b11111110111001111001111011100011 B
#269
b100001111111011110010011 b
b11001111011 $"
#272
b100011100100 "
b1011010011110000011 B
#273
b11111110000001111001110011100011 b
b11001111111 $"
#274
b100011101000 "
b11111110110001111001101011100011 B
#275
b1110010011110000011 b
b11001110111 $"
#277
b100001111111011110010011 b
b11001111011 $"
#278
b100011011100 "
b1101010011110000011 B
#280
b100011100000 "
b11111110111001111001111011100011 B
#281
b11111110000001111001110011100011 b
b11001111111 $"
#283
b1110010011110000011 b
b11001110111 $"
#284
b100011100100 "
b1011010011110000011 B
#285
b100001111111011110010011 b
b11001111011 $"
#286
b100011101000 "
b11111110110001111001101011100011 B
#289
b11111110000001111001110011100011 b
b11001111111 $"
#290
b100011011100 "
b1101010011110000011 B
#291
b1110010011110000011 b
b11001110111 $"
#292
b100011100000 "
b11111110111001111001111011100011 B
#293
b100001111111011110010011 b
b11001111011 $"
#296
b100011100100 "
b1011010011110000011 B
#297
b11111110000001111001110011100011 b
b11001111111 $"
#298
b100011101000 "
b11111110110001111001101011100011 B
#299
b1110010011110000011 b
b11001110111 $"
#301
b100001111111011110010011 b
b11001111011 $"
#302
b100011011100 "
b1101010011110000011 B
#304
b100011100000 "
b11111110111001111001111011100011 B
#305
b11111110000001111001110011100011 b
b11001111111 $"
#307
b1110010011110000011 b
b11001110111 $"
#308
b100011100100 "
b1011010011110000011 B
#309
b100001111111011110010011 b
b11001111011 $"
#310
b100011101000 "
b11111110110001111001101011100011 B
#313
b11111110000001111001110011100011 b
b11001111111 $"
#314
b100011011100 "
b1101010011110000011 B
#315
b1110010011110000011 b
b11001110111 $"
#316
b100011100000 "
b11111110111001111001111011100011 B
#317
b100001111111011110010011 b
b11001111011 $"
#320
b100011100100 "
b1011010011110000011 B
#321
b11111110000001111001110011100011 b
b11001111111 $"
#322
b100011101000 "
b11111110110001111001101011100011 B
#323
b1110010011110000011 b
b11001110111 $"
#325
b100001111111011110010011 b
b11001111011 $"
#326
b100011011100 "
b1101010011110000011 B
#328
b100011100000 "
b11111110111001111001111011100011 B
#329
b11111110000001111001110011100011 b
b11001111111 $"
#331
b1110010011110000011 b
b11001110111 $"
#332
b100011100100 "
b1011010011110000011 B
#333
b100001111111011110010011 b
b11001111011 $"
#334
b100011101000 "
b11111110110001111001101011100011 B
#337
b11111110000001111001110011100011 b
b11001111111 $"
#338
b100011011100 "
b1101010011110000011 B
#339
b1110010011110000011 b
b11001110111 $"
#340
b100011100000 "
b11111110111001111001111011100011 B
#341
b100001111111011110010011 b
b11001111011 $"
#344
b100011100100 "
b1011010011110000011 B
#345
b11111110000001111001110011100011 b
b11001111111 $"
#346
b100011101000 "
b11111110110001111001101011100011 B
#347
b1110010011110000011 b
b11001110111 $"
#349
b100001111111011110010011 b
b11001111011 $"
#350
b100011011100 "
b1101010011110000011 B
#352
b100011100000 "
b11111110111001111001111011100011 B
#353
b11111110000001111001110011100011 b
b11001111111 $"
#355
b1110010011110000011 b
b11001110111 $"
#356
b100011100100 "
b1011010011110000011 B
#357
b100001111111011110010011 b
b11001111011 $"
#358
b100011101000 "
b11111110110001111001101011100011 B
#361
b11111110000001111001110011100011 b
b11001111111 $"
#362
b100011011100 "
b1101010011110000011 B
#363
b1110010011110000011 b
b11001110111 $"
#364
b100011100000 "
b11111110111001111001111011100011 B
#365
b100001111111011110010011 b
b11001111011 $"
#368
b100011100100 "
b1011010011110000011 B
#369
b11111110000001111001110011100011 b
b11001111111 $"
#370
b100011101000 "
b11111110110001111001101011100011 B
#371
b1110010011110000011 b
b11001110111 $"
#373
b100001111111011110010011 b
b11001111011 $"
#374
b100011011100 "
b1101010011110000011 B
#376
b100011100000 "
b11111110111001111001111011100011 B
#377
b11111110000001111001110011100011 b
b11001111111 $"
#379
b1110010011110000011 b
b11001110111 $"
#380
b100011100100 "
b1011010011110000011 B
#381
b100001111111011110010011 b
b11001111011 $"
#382
b100011101000 "
b11111110110001111001101011100011 B
#385
b11111110000001111001110011100011 b
b11001111111 $"
#386
b100011011100 "
b1101010011110000011 B
#387
b1110010011110000011 b
b11001110111 $"
#388
b100011100000 "
b11111110111001111001111011100011 B
#389
b100001111111011110010011 b
b11001111011 $"
#392
b100011100100 "
b1011010011110000011 B
#393
b11111110000001111001110011100011 b
b11001111111 $"
#394
b100011101000 "
b11111110110001111001101011100011 B
#395
b1110010011110000011 b
b11001110111 $"
#397
b100001111111011110010011 b
b11001111011 $"
#398
b100011011100 "
b1101010011110000011 B
#400
b100011100000 "
b11111110111001111001111011100011 B
#401
b11111110000001111001110011100011 b
b11001111111 $"
#403
b1110010011110000011 b
b11001110111 $"
#404
b100011100100 "
b1011010011110000011 B
#405
b100001111111011110010011 b
b11001111011 $"
#406
b100011101000 "
b11111110110001111001101011100011 B
#409
b11111110000001111001110011100011 b
b11001111111 $"
#410
b100011011100 "
b1101010011110000011 B
#411
b1110010011110000011 b
b11001110111 $"
#412
b100011100000 "
b11111110111001111001111011100011 B
#413
b100001111111011110010011 b
b11001111011 $"
#416
b100011100100 "
b1011010011110000011 B
#417
b11111110000001111001110011100011 b
b11001111111 $"
#418
b100011101000 "
b11111110110001111001101011100011 B
#419
b1110010011110000011 b
b11001110111 $"
#421
b100001111111011110010011 b
b11001111011 $"
#422
b100011011100 "
b1101010011110000011 B
#424
b100011100000 "
b11111110111001111001111011100011 B
#425
b11111110000001111001110011100011 b
b11001111111 $"
#427
b1110010011110000011 b
b11001110111 $"
#428
b100011100100 "
b1011010011110000011 B
#429
b100001111111011110010011 b
b11001111011 $"
#430
b100011101000 "
b11111110110001111001101011100011 B
#433
b11111110000001111001110011100011 b
b11001111111 $"
#434
b100011011100 "
b1101010011110000011 B
#435
b1110010011110000011 b
b11001110111 $"
#436
b100011100000 "
b11111110111001111001111011100011 B
#437
b100001111111011110010011 b
b11001111011 $"
#440
b100011100100 "
b1011010011110000011 B
#441
b11111110000001111001110011100011 b
b11001111111 $"
#442
b100011101000 "
b11111110110001111001101011100011 B
#443
b1110010011110000011 b
b11001110111 $"
#445
b100001111111011110010011 b
b11001111011 $"
#446
b100011011100 "
b1101010011110000011 B
#448
b100011100000 "
b11111110111001111001111011100011 B
#449
b11111110000001111001110011100011 b
b11001111111 $"
#451
b1110010011110000011 b
b11001110111 $"
#452
b100011100100 "
b1011010011110000011 B
#453
b100001111111011110010011 b
b11001111011 $"
#454
b100011101000 "
b11111110110001111001101011100011 B
#457
b11111110000001111001110011100011 b
b11001111111 $"
#458
b100011011100 "
b1101010011110000011 B
#459
b1110010011110000011 b
b11001110111 $"
#460
b100011100000 "
b11111110111001111001111011100011 B
#461
b100001111111011110010011 b
b11001111011 $"
#464
b100011100100 "
b1011010011110000011 B
#465
b11111110000001111001110011100011 b
b11001111111 $"
#466
b100011101000 "
b11111110110001111001101011100011 B
#467
b1110010011110000011 b
b11001110111 $"
#469
b100001111111011110010011 b
b11001111011 $"
#470
b100011011100 "
b1101010011110000011 B
#472
b100011100000 "
b11111110111001111001111011100011 B
#473
b11111110000001111001110011100011 b
b11001111111 $"
#475
b1110010011110000011 b
b11001110111 $"
#476
b100011100100 "
b1011010011110000011 B
#477
b100001111111011110010011 b
b11001111011 $"
#478
b100011101000 "
b11111110110001111001101011100011 B
#481
b11111110000001111001110011100011 b
b11001111111 $"
#482
b100011011100 "
b1101010011110000011 B
#483
b1110010011110000011 b
b11001110111 $"
#484
b100011100000 "
b11111110111001111001111011100011 B
#485
b100001111111011110010011 b
b11001111011 $"
#488
b100011100100 "
b1011010011110000011 B
#489
b11111110000001111001110011100011 b
b11001111111 $"
#490
b100011101000 "
b11111110110001111001101011100011 B
#491
b1110010011110000011 b
b11001110111 $"
#493
b100001111111011110010011 b
b11001111011 $"
#494
b100011011100 "
b1101010011110000011 B
#496
b100011100000 "
b11111110111001111001111011100011 B
#497
b11111110000001111001110011100011 b
b11001111111 $"
#499
b1110010011110000011 b
b11001110111 $"
#500
b100011100100 "
b1011010011110000011 B
#501
b100001111111011110010011 b
b11001111011 $"
#502
b100011101000 "
b11111110110001111001101011100011 B
#505
b11111110000001111001110011100011 b
b11001111111 $"
#506
b100011011100 "
b1101010011110000011 B
#507
b1110010011110000011 b
b11001110111 $"
#508
b100011100000 "
b11111110111001111001111011100011 B
#509
b100001111111011110010011 b
b11001111011 $"
#512
b100011100100 "
b1011010011110000011 B
#513
b11111110000001111001110011100011 b
b11001111111 $"
#514
b100011101000 "
b11111110110001111001101011100011 B
#515
b1110010011110000011 b
b11001110111 $"
#517
b100001111111011110010011 b
b11001111011 $"
#518
b100011011100 "
b1101010011110000011 B
#520
b100011100000 "
b11111110111001111001111011100011 B
#521
b11111110000001111001110011100011 b
b11001111111 $"
#523
b1110010011110000011 b
b11001110111 $"
#524
b100011100100 "
b1011010011110000011 B
#525
b100001111111011110010011 b
b11001111011 $"
#526
b100011101000 "
b11111110110001111001101011100011 B
#529
b11111110000001111001110011100011 b
b11001111111 $"
#530
b100011011100 "
b1101010011110000011 B
#531
b1110010011110000011 b
b11001110111 $"
#532
b100011100000 "
b11111110111001111001111011100011 B
#533
b100001111111011110010011 b
b11001111011 $"
#536
b100011100100 "
b1011010011110000011 B
#537
b11111110000001111001110011100011 b
b11001111111 $"
#538
b100011101000 "
b11111110110001111001101011100011 B
#539
b1110010011110000011 b
b11001110111 $"
#541
b100001111111011110010011 b
b11001111011 $"
#542
b100011011100 "
b1101010011110000011 B
#544
b100011100000 "
b11111110111001111001111011100011 B
#545
b11111110000001111001110011100011 b
b11001111111 $"
#547
b1110010011110000011 b
b11001110111 $"
#548
b100011100100 "
b1011010011110000011 B
#549
b100001111111011110010011 b
b11001111011 $"
#550
b100011101000 "
b11111110110001111001101011100011 B
#553
b11111110000001111001110011100011 b
b11001111111 $"
#554
b100011011100 "
b1101010011110000011 B
#555
b1110010011110000011 b
b11001110111 $"
#556
b100011100000 "
b11111110111001111001111011100011 B
#557
b100001111111011110010011 b
b11001111011 $"
#560
b100011100100 "
b1011010011110000011 B
#561
b11111110000001111001110011100011 b
b11001111111 $"
#562
b100011101000 "
b11111110110001111001101011100011 B
#563
b1110010011110000011 b
b11001110111 $"
#565
b100001111111011110010011 b
b11001111011 $"
#566
b100011011100 "
b1101010011110000011 B
#568
b100011100000 "
b11111110111001111001111011100011 B
#569
b11111110000001111001110011100011 b
b11001111111 $"
#571
b1110010011110000011 b
b11001110111 $"
#572
b100011100100 "
b1011010011110000011 B
#573
b100001111111011110010011 b
b11001111011 $"
#574
b100011101000 "
b11111110110001111001101011100011 B
#577
b11111110000001111001110011100011 b
b11001111111 $"
#578
b100011011100 "
b1101010011110000011 B
#579
b1110010011110000011 b
b11001110111 $"
#580
b100011100000 "
b11111110111001111001111011100011 B
#581
b100001111111011110010011 b
b11001111011 $"
#584
b100011100100 "
b1011010011110000011 B
#585
b11111110000001111001110011100011 b
b11001111111 $"
#586
b100011101000 "
b11111110110001111001101011100011 B
#587
b1110010011110000011 b
b11001110111 $"
#589
b100001111111011110010011 b
b11001111011 $"
#590
b100011011100 "
b1101010011110000011 B
#592
b100011100000 "
b11111110111001111001111011100011 B
#593
b11111110000001111001110011100011 b
b11001111111 $"
#595
b1110010011110000011 b
b11001110111 $"
#596
b100011100100 "
b1011010011110000011 B
#597
b100001111111011110010011 b
b11001111011 $"
#598
b100011101000 "
b11111110110001111001101011100011 B
#601
b11111110000001111001110011100011 b
b11001111111 $"
#602
b100011011100 "
b1101010011110000011 B
#603
b1110010011110000011 b
b11001110111 $"
#604
b100011100000 "
b11111110111001111001111011100011 B
#605
b100001111111011110010011 b
b11001111011 $"
#608
b100011100100 "
b1011010011110000011 B
#609
b11111110000001111001110011100011 b
b11001111111 $"
#610
b100011101000 "
b11111110110001111001101011100011 B
#611
b1110010011110000011 b
b11001110111 $"
#613
b100001111111011110010011 b
b11001111011 $"
#614
b100011011100 "
b1101010011110000011 B
#616
b100011100000 "
b11111110111001111001111011100011 B
#617
b11111110000001111001110011100011 b
b11001111111 $"
#619
b1110010011110000011 b
b11001110111 $"
#620
b100011100100 "
b1011010011110000011 B
#621
b100001111111011110010011 b
b11001111011 $"
#622
b100011101000 "
b11111110110001111001101011100011 B
#625
b11111110000001111001110011100011 b
b11001111111 $"
#626
b100011011100 "
b1101010011110000011 B
#627
b1110010011110000011 b
b11001110111 $"
#628
b100011100000 "
b11111110111001111001111011100011 B
#629
b100001111111011110010011 b
b11001111011 $"
#632
b100011100100 "
b1011010011110000011 B
#633
b11111110000001111001110011100011 b
b11001111111 $"
#634
b100011101000 "
b11111110110001111001101011100011 B
#635
b1110010011110000011 b
b11001110111 $"
#637
b100001111111011110010011 b
b11001111011 $"
#638
b100011011100 "
b1101010011110000011 B
#640
b100011100000 "
b11111110111001111001111011100011 B
#641
b11111110000001111001110011100011 b
b11001111111 $"
#643
b1110010011110000011 b
b11001110111 $"
#644
b100011100100 "
b1011010011110000011 B
#645
b100001111111011110010011 b
b11001111011 $"
#646
b100011101000 "
b11111110110001111001101011100011 B
#649
b11111110000001111001110011100011 b
b11001111111 $"
#650
b100011011100 "
b1101010011110000011 B
#651
b1110010011110000011 b
b11001110111 $"
#652
b100011100000 "
b11111110111001111001111011100011 B
#653
b100001111111011110010011 b
b11001111011 $"
#656
b100011100100 "
b1011010011110000011 B
#657
b11111110000001111001110011100011 b
b11001111111 $"
#658
b100011101000 "
b11111110110001111001101011100011 B
#659
b1110010011110000011 b
b11001110111 $"
#661
b100001111111011110010011 b
b11001111011 $"
#662
b100011011100 "
b1101010011110000011 B
#664
b100011100000 "
b11111110111001111001111011100011 B
#665
b11111110000001111001110011100011 b
b11001111111 $"
#667
b1110010011110000011 b
b11001110111 $"
#668
b100011100100 "
b1011010011110000011 B
#669
b100001111111011110010011 b
b11001111011 $"
#670
b100011101000 "
b11111110110001111001101011100011 B
#673
b11111110000001111001110011100011 b
b11001111111 $"
#674
b100011011100 "
b1101010011110000011 B
#675
b1110010011110000011 b
b11001110111 $"
#676
b100011100000 "
b11111110111001111001111011100011 B
#677
b100001111111011110010011 b
b11001111011 $"
#680
b100011100100 "
b1011010011110000011 B
#681
b11111110000001111001110011100011 b
b11001111111 $"
#682
b100011101000 "
b11111110110001111001101011100011 B
#683
b1110010011110000011 b
b11001110111 $"
#685
b100001111111011110010011 b
b11001111011 $"
#686
b100011011100 "
b1101010011110000011 B
#688
b100011100000 "
b11111110111001111001111011100011 B
#689
b11111110000001111001110011100011 b
b11001111111 $"
#691
b1110010011110000011 b
b11001110111 $"
#692
b100011100100 "
b1011010011110000011 B
#693
b100001111111011110010011 b
b11001111011 $"
#694
b100011101000 "
b11111110110001111001101011100011 B
#697
b11111110000001111001110011100011 b
b11001111111 $"
#698
b100011011100 "
b1101010011110000011 B
#699
b1110010011110000011 b
b11001110111 $"
#700
b100011100000 "
b11111110111001111001111011100011 B
#701
b100001111111011110010011 b
b11001111011 $"
#704
b100011100100 "
b1011010011110000011 B
#705
b11111110000001111001110011100011 b
b11001111111 $"
#706
b100011101000 "
b11111110110001111001101011100011 B
#707
b1110010011110000011 b
b11001110111 $"
#709
b100001111111011110010011 b
b11001111011 $"
#710
b100011011100 "
b1101010011110000011 B
#712
b100011100000 "
b11111110111001111001111011100011 B
#713
b11111110000001111001110011100011 b
b11001111111 $"
#715
b1110010011110000011 b
b11001110111 $"
#716
b100011100100 "
b1011010011110000011 B
#717
b100001111111011110010011 b
b11001111011 $"
#718
b100011101000 "
b11111110110001111001101011100011 B
#721
b11111110000001111001110011100011 b
b11001111111 $"
#722
b100011011100 "
b1101010011110000011 B
#723
b1110010011110000011 b
b11001110111 $"
#724
b100011100000 "
b11111110111001111001111011100011 B
#725
b100001111111011110010011 b
b11001111011 $"
#728
b100011100100 "
b1011010011110000011 B
#729
b11111110000001111001110011100011 b
b11001111111 $"
#730
b100011101000 "
b11111110110001111001101011100011 B
#731
b1110010011110000011 b
b11001110111 $"
#733
b100001111111011110010011 b
b11001111011 $"
#734
b100011011100 "
b1101010011110000011 B
#736
b100011100000 "
b11111110111001111001111011100011 B
#737
b11111110000001111001110011100011 b
b11001111111 $"
#739
b1110010011110000011 b
b11001110111 $"
#740
b100011100100 "
b1011010011110000011 B
#741
b100001111111011110010011 b
b11001111011 $"
#742
b100011101000 "
b11111110110001111001101011100011 B
#745
b11111110000001111001110011100011 b
b11001111111 $"
#746
b100011011100 "
b1101010011110000011 B
#747
b1110010011110000011 b
b11001110111 $"
#748
b100011100000 "
b11111110111001111001111011100011 B
#749
b100001111111011110010011 b
b11001111011 $"
#752
b100011100100 "
b1011010011110000011 B
#753
b11111110000001111001110011100011 b
b11001111111 $"
#754
b100011101000 "
b11111110110001111001101011100011 B
#755
b1110010011110000011 b
b11001110111 $"
#757
b100001111111011110010011 b
b11001111011 $"
#758
b100011011100 "
b1101010011110000011 B
#760
b100011100000 "
b11111110111001111001111011100011 B
#761
b11111110000001111001110011100011 b
b11001111111 $"
#763
b1110010011110000011 b
b11001110111 $"
#764
b100011100100 "
b1011010011110000011 B
#765
b100001111111011110010011 b
b11001111011 $"
#766
b100011101000 "
b11111110110001111001101011100011 B
#769
b11111110000001111001110011100011 b
b11001111111 $"
#770
b100011011100 "
b1101010011110000011 B
#771
b1110010011110000011 b
b11001110111 $"
#772
b100011100000 "
b11111110111001111001111011100011 B
#773
b100001111111011110010011 b
b11001111011 $"
#776
b100011100100 "
b1011010011110000011 B
#777
b11111110000001111001110011100011 b
b11001111111 $"
#778
b100011101000 "
b11111110110001111001101011100011 B
#779
b1110010011110000011 b
b11001110111 $"
#781
b100001111111011110010011 b
b11001111011 $"
#782
b100011011100 "
b1101010011110000011 B
#784
b100011100000 "
b11111110111001111001111011100011 B
#785
b11111110000001111001110011100011 b
b11001111111 $"
#787
b1110010011110000011 b
b11001110111 $"
#788
b100011100100 "
b1011010011110000011 B
#789
b100001111111011110010011 b
b11001111011 $"
#790
b100011101000 "
b11111110110001111001101011100011 B
#793
b11111110000001111001110011100011 b
b11001111111 $"
#794
b100011011100 "
b1101010011110000011 B
#795
b1110010011110000011 b
b11001110111 $"
#796
b100011100000 "
b11111110111001111001111011100011 B
#797
b100001111111011110010011 b
b11001111011 $"
#800
b100011100100 "
b1011010011110000011 B
#801
b11111110000001111001110011100011 b
b11001111111 $"
#802
b100011101000 "
b11111110110001111001101011100011 B
#803
b1110010011110000011 b
b11001110111 $"
#805
b100001111111011110010011 b
b11001111011 $"
#806
b100011011100 "
b1101010011110000011 B
#808
b100011100000 "
b11111110111001111001111011100011 B
#809
b11111110000001111001110011100011 b
b11001111111 $"
#811
b1110010011110000011 b
b11001110111 $"
#812
b100011100100 "
b1011010011110000011 B
#813
b100001111111011110010011 b
b11001111011 $"
#814
b100011101000 "
b11111110110001111001101011100011 B
#817
b11111110000001111001110011100011 b
b11001111111 $"
#818
b100011011100 "
b1101010011110000011 B
#819
b1110010011110000011 b
b11001110111 $"
#820
b100011100000 "
b11111110111001111001111011100011 B
#821
b100001111111011110010011 b
b11001111011 $"
#824
b100011100100 "
b1011010011110000011 B
#825
b11111110000001111001110011100011 b
b11001111111 $"
#826
b100011101000 "
b11111110110001111001101011100011 B
#827
b1110010011110000011 b
b11001110111 $"
#829
b100001111111011110010011 b
b11001111011 $"
#830
b100011011100 "
b1101010011110000011 B
#832
b100011100000 "
b11111110111001111001111011100011 B
#833
b11111110000001111001110011100011 b
b11001111111 $"
#835
b1110010011110000011 b
b11001110111 $"
#836
b100011100100 "
b1011010011110000011 B
#837
b100001111111011110010011 b
b11001111011 $"
#838
b100011101000 "
b11111110110001111001101011100011 B
#841
b11111110000001111001110011100011 b
b11001111111 $"
