aquila_mp/multicore_aquila/.Xil/Vivado-4139-henry7090-ROG-Zephyrus-G16/hw_ila_data_1/zip_work/waveform.vcd
$date
        2024-Sep-27 11:24:23
$end
$version
        Vivado v2024.1 (64-bit)
$end
$timescale
        1ps
$end
$scope module dut $end
$var reg 128 " \genblk1[0].Aquila_SoC/I_Cache/m_data_i [127:0] $end
$var reg 128 D" \genblk1[0].Aquila_SoC/m_i_dram [127:0] $end
$var reg 28 f# \genblk1[0].Aquila_SoC/M_IMEM_addr_o [31:4] $end
$var reg 32 $$ \genblk1[0].Aquila_SoC/I_Cache/p_data_o [31:0] $end
$var reg 32 D$ \genblk1[0].Aquila_SoC/I_Cache/p_addr_i [31:0] $end
$var reg 128 d$ \genblk1[1].Aquila_SoC/m_i_dram [127:0] $end
$var reg 1 (& \genblk1[0].Aquila_SoC/M_IMEM_done_i $end
$var reg 1 )& \genblk1[0].Aquila_SoC/M_IMEM_strobe_o $end
$var reg 1 *& _TRIGGER $end
$var reg 1 +& _WINDOW $end
$var reg 1 ,& _GAP $end
$upscope $end
$enddefinitions $end
#0
$dumpvars
b0 "
b0 D"
b0 f#
b0 $$
b11000001100 D$
b0 d$
0(&
0)&
0*&
1+&
0,&
$end
#4
b11000000100 D$
#5
b11000001000 D$
#6
b11000001100 D$
#12
b11000000100 D$
#13
b11000001000 D$
#14
b11000001100 D$
#20
b11000000100 D$
#21
b11000001000 D$
#22
b11000001100 D$
#28
b11000000100 D$
#29
b11000001000 D$
#30
b11000010000 D$
#31
b11000010100 D$
#32
b10110111000 D$
#33
b10110111100 D$
#38
b10111000000 D$
#39
b10101111100 D$
#41
b10111111000 D$
#42
b10111000100 D$
#43
b10111001000 D$
#44
b10111001100 D$
#45
b10111010000 D$
#47
b10111010100 D$
#49
b10111011000 D$
#51
b10111011100 D$
#53
b10111100000 D$
#55
b10111100100 D$
#57
b10111101000 D$
#59
b10111101100 D$
#61
b10111110000 D$
#63
b10111110100 D$
#65
b10111111000 D$
#66
b10111111100 D$
#67
b100010110000 D$
#68
b100010110100 D$
#69
b100010111000 D$
#70
b1011000 D$
#71
b1011100 D$
#72
b1100000 D$
#73
b1100100 D$
#76
b1101000 D$
#87
b1101100 D$
#88
b1110000 D$
#89
b100010110100 D$
#90
b100010111000 D$
#91
b100010111100 D$
#92
b100011000000 D$
#93
b100010111000 D$
#94
b100010111100 D$
#95
b100011000000 D$
#96
b100011000100 D$
#99
b100011001000 D$
#100
b10000000000000000010001001100100 D$
1*&
#612
b1000000000000000001000100110 f#
1)&
#613
0)&
#646
b1100101011010001011101110110000011101111110110011001110100110101010100100000011001001011100001111001110110011011101001111110101 "
b1100101011010001011101110110000011101111110110011001110100110101010100100000011001001011100001111001110110011011101001111110101 D"
1(&
#647
b0 "
b0 D"
b1110111111011001100111010011010 $$
b10000000000000000010001001101000 D$
0(&
#648
b0 f#
b0 $$
#649
b10101001000000110010010111000011 $$
b10000000000000000010001001101100 D$
#650
b11001110110011011101001111110101 $$
b10000000000000000010001001110000 D$
#651
b0 $$
#652
b1000000000000000001000100111 f#
1)&
#653
0)&
#686
b10111111011011001010111011101010111011110011110000100000111011010111010001100001110101001011111011010100101100111111110010011111 "
b10111111011011001010111011101010111011110011110000100000111011010111010001100001110101001011111011010100101100111111110010011111 D"
1(&
#687
b0 "
b0 D"
b10111111011011001010111011101010 $$
b10000000000000000010001001110100 D$
0(&
#688
b0 f#
b0 $$
#689
b11101111001111000010000011101101 $$
b10000000000000000010001001111000 D$
#690
b1110100011000011101010010111110 $$
b10000000000000000010001001111100 D$
#691
b11010100101100111111110010011111 $$
b1111111111111000101000101100110 D$
#692
b0 $$
#693
b111111111111100010100010110 f#
1)&
#694
0)&
#727
b10100001001101001010000011110001000010001101000100100000011011001101100110000000000001000100100100000000100001000000010111110001 "
b10100001001101001010000011110001000010001101000100100000011011001101100110000000000001000100100100000000100001000000010111110001 D"
1(&
#728
b0 "
b0 D"
b1000110100010010000001101100 $$
b1111111111111000101000101101010 D$
0(&
#729
b0 f#
b0 $$
#730
b11011001100000000000010001001001 $$
b1111111111111000101000101101110 D$
#731
b100001000000010111110001 $$
b1111111111111010111100111110010 D$
#732
b0 $$
#733
b111111111111101011110011111 f#
1)&
#734
0)&
#767
b1110000100111010101010010000001010111011011001100000100000110110110110001000000000010010001010000110001100100101111010101000110 "
b1110000100111010101010010000001010111011011001100000100000110110110110001000000000010010001010000110001100100101111010101000110 D"
1(&
#768
b0 "
b0 D"
b1110000100111010101010010000001 $$
b1111111111111010111100111110110 D$
0(&
#769
b0 f#
b0 $$
#770
b1011101101100110000010000011011 $$
b1111111111111010111100111111010 D$
#771
b1101100010000000000100100010100 $$
b1111111111111010111100111111110 D$
#772
b110001100100101111010101000110 $$
b1111111111111010111101000000010 D$
#773
b0 $$
#774
b111111111111101011110100000 f#
1)&
#775
0)&
#808
b10000101010100110010000101000111110000000011010001010100010111110000000010010010101010001000011000000001010110101001100011000011 "
b10000101010100110010000101000111110000000011010001010100010111110000000010010010101010001000011000000001010110101001100011000011 D"
1(&
#809
b0 "
b0 D"
b10000101010100110010000101000111 $$
b0 D$
0(&
#810
b0 f#
b0 $$
#811
b100 D$
#812
1)&
#813
b1000 D$
0)&
#815
b1100 D$
#817
b10000 D$
#818
b1 f#
#819
b10100 D$
#821
b11000 D$
#823
b11100010000 D$
#824
b1110001 f#
#825
b11100010100 D$
#827
b11100011000 D$
#829
b11100011100 D$
#831
b11100100000 D$
#832
b1110010 f#
#833
b11100100100 D$
#835
b11100101000 D$
#839
b11100101100 D$
#841
b11100110000 D$
#842
b1110011 f#
#845
b11100110100 D$
#846
b1100110011001101001100110011001101010101010101001010101010101010101010101010101101010101010101000000000000000001111111111111111 "
b1100110011001101001100110011001101010101010101001010101010101010101010101010101101010101010101000000000000000001111111111111111 D"
1(&
#847
b0 "
b0 D"
b10101010101010100101010101010101 $$
b11100111000 D$
0(&
#848
b0 f#
b0 $$
#849
b1010101010101011010101010101010 $$
b11100111100 D$
#850
b1111111111111111 $$
#851
b11101000000 D$
#852
b0 $$
#853
b1110100 f#
b11101000100 D$
1)&
#854
0)&
#855
b11101001000 D$
#857
b11101001100 D$
#859
b11101010000 D$
#860
b1110101 f#
#861
b11101010100 D$
#863
b11101011000 D$
#865
b11101011100 D$
#867
b11101100000 D$
#868
b1110110 f#
#869
b11101100100 D$
#871
b11101101000 D$
#873
b110100 D$
#874
b11 f#
#875
b111000 D$
#877
b111100 D$
#879
b1000000 D$
#880
b100 f#
#881
b1000100 D$
#883
b1001000 D$
#887
b10010110100111101101011010011101100101101111011101010110111011101111101111001000100100001010011110111101101110111010001011100111 "
b10010110100111101101011010011101100101101111011101010110111011101111101111001000100100001010011110111101101110111010001011100111 D"
b1001100 D$
1(&
#888
b0 "
b0 D"
b10111101101110111010001011100111 $$
0(&
#889
b0 f#
b0 $$
b1010000 D$
#891
b101 f#
1)&
#892
0)&
#901
b1010100 D$
#903
b1011000 D$
#905
b1011100 D$
#907
b11101100100 D$
#908
b1110110 f#
#909
b11101101000 D$
#911
b11101101100 D$
#913
b11101110000 D$
#914
b1110111 f#
#915
b11101110100 D$
#917
b10100000000 D$
#918
b1010000 f#
#919
b10100000100 D$
#921
b10100001000 D$
#923
b10100001100 D$
#925
b1000001001001000000001011010111100000101001011010000010111100110000010010101100001101101100101000111000000101001100110111011010 "
b1000001001001000000001011010111100000101001011010000010111100110000010010101100001101101100101000111000000101001100110111011010 D"
b10100010000 D$
1(&
#926
b0 "
b0 D"
b1010001 f#
0(&
#927
b0 f#
b10100010100 D$
#929
b1010001 f#
b10100011000 D$
1)&
#930
0)&
#931
b10100011100 D$
#933
b10100100000 D$
#934
b1010010 f#
#935
b10100100100 D$
#937
b10100101000 D$
#939
b10100101100 D$
#941
b10100110000 D$
#942
b1010011 f#
#943
b10100110100 D$
#945
b10100111000 D$
#947
b10100111100 D$
#949
b10101000000 D$
#950
b1010100 f#
#951
b10101000100 D$
#953
b10101001000 D$
#955
b10101001100 D$
#957
b10101010000 D$
#958
b1010101 f#
#959
b10101010100 D$
#961
b10101011000 D$
#963
b10101011100 D$
#964
b11011111010101100110111001110110100001011101000001111111101000111101011010010000101110101110110001101111000101100111111010000011 "
b11011111010101100110111001110110100001011101000001111111101000111101011010010000101110101110110001101111000101100111111010000011 D"
1(&
#965
b0 "
b0 D"
b1101111000101100111111010000011 $$
b10101100000 D$
0(&
#966
b0 f#
b0 $$
#967
b10101100100 D$
#968
b1010110 f#
1)&
#969
b10101101000 D$
0)&
#971
b10101101100 D$
#973
b10101110000 D$
#974
b1010111 f#
#975
b10101110100 D$
#977
b10101111000 D$
#979
b10101111100 D$
#981
b10111111000 D$
#982
b1011111 f#
#983
b10111111100 D$
#985
b11000000000 D$
#986
b1100000 f#
#987
b11000011000 D$
#988
b1100001 f#
#989
b11000011100 D$
#991
b11000000100 D$
#992
b1100000 f#
#993
b11000001000 D$
#995
b11000001100 D$
#1002
b11110110110010100000110011010010110100101001101011000111010101010011110110010100101110011011011101111101111011010011001110110101 "
b11110110110010100000110011010010110100101001101011000111010101010011110110010100101110011011011101111101111011010011001110110101 D"
1(&
#1003
b0 "
b0 D"
b1111101111011010011001110110101 $$
b11000010000 D$
0(&
#1004
b0 f#
b0 $$
#1005
b11000010100 D$
#1006
b1100001 f#
1)&
#1007
b11000000100 D$
0)&
#1008
b1100000 f#
b11010010100110101100011101010101 $$
#1009
b0 $$
b11000001000 D$
#1011
b11000001100 D$
#1019
b11000000100 D$
#1021
b11000001000 D$
#1023
b11000001100 D$
